﻿[
  {
    "Categoria": "CD",
    "ValorPontos": 1468,
    "Descricao": "Elit duis ea qui magna id proident dolor officia dolore exercitation sunt adipisicing non. Officia non magna amet exercitation officia pariatur nostrud velit ex labore ullamco ad. Deserunt irure laboris exercitation quis. Mollit minim reprehenderit ex irure voluptate deserunt irure dolore cupidatat Lorem sunt occaecat voluptate. Laborum proident proident sunt est ad elit et cillum. Mollit sunt quis pariatur eiusmod nisi.",
    "Titulo": "Produto #2631"
  },
  {
    "Categoria": "CD",
    "ValorPontos": 1462,
    "Descricao": "Dolore Lorem duis elit ullamco qui occaecat commodo laborum exercitation qui ea. Reprehenderit in eiusmod officia aute cillum consectetur esse sit. Dolore aliqua enim qui laboris commodo ut aliquip magna ullamco mollit non. Deserunt esse ullamco enim incididunt.",
    "Titulo": "Produto #1769"
  },
  {
    "Categoria": "DVD",
    "ValorPontos": 394,
    "Descricao": "Officia anim ut sit sunt non ex magna duis. Velit deserunt deserunt id enim proident eiusmod deserunt culpa nostrud qui excepteur pariatur. Lorem consequat Lorem quis anim ipsum enim irure ad consectetur aute do nulla. Aliqua ea tempor proident exercitation adipisicing non in anim. Veniam qui labore duis sint minim est excepteur non non officia anim.",
    "Titulo": "Produto #702"
  },
  {
    "Categoria": "Jardinagem",
    "ValorPontos": 309,
    "Descricao": "Eu exercitation amet nulla cupidatat ex nulla dolore. Pariatur anim magna deserunt ullamco deserunt aliqua est aute elit excepteur do esse. Voluptate occaecat sit occaecat duis reprehenderit excepteur mollit deserunt. Eiusmod non veniam commodo veniam amet occaecat elit consequat. Irure nulla laboris laboris enim magna. Ullamco ut aliqua dolore ullamco id ut laboris. Enim id in tempor culpa.",
    "Titulo": "Produto #343"
  },
  {
    "Categoria": "Jardinagem",
    "ValorPontos": 2534,
    "Descricao": "Laboris ullamco nulla cillum ea enim sint officia reprehenderit sint est. Ea non nostrud incididunt sint irure officia est incididunt dolore id anim. Ullamco incididunt dolor in aliquip amet nisi reprehenderit laboris do.",
    "Titulo": "Produto #1818"
  },
  {
    "Categoria": "Beleza",
    "ValorPontos": 2262,
    "Descricao": "Excepteur eiusmod dolor deserunt laboris ullamco id ea qui dolore dolor tempor incididunt consectetur. Deserunt ad fugiat duis deserunt Lorem eiusmod id. Mollit est eiusmod velit anim dolor irure laboris irure. Excepteur adipisicing sunt ipsum est proident culpa anim mollit culpa deserunt irure excepteur exercitation.",
    "Titulo": "Produto #1154"
  },
  {
    "Categoria": "Eletronico",
    "ValorPontos": 3704,
    "Descricao": "Cupidatat incididunt est nulla incididunt incididunt fugiat laborum cupidatat. Ut minim nostrud laborum deserunt esse proident cupidatat ea cupidatat sint deserunt dolor consectetur. Est eu mollit voluptate dolore enim. Cillum laborum dolore ipsum proident exercitation nulla proident sint est reprehenderit ut duis magna officia. Esse laboris nisi minim qui ipsum veniam ullamco fugiat cupidatat enim aliquip non ex. Laboris consequat consequat nulla dolore non ex aliquip duis fugiat id id elit. Do cillum amet cillum ex duis.",
    "Titulo": "Produto #3055"
  },
  {
    "Categoria": "Informatica",
    "ValorPontos": 3257,
    "Descricao": "Nostrud in exercitation fugiat sint anim et. Esse culpa esse cillum labore quis est dolore elit exercitation ullamco do Lorem. Deserunt excepteur dolore magna sunt fugiat laboris commodo non mollit.",
    "Titulo": "Produto #2375"
  },
  {
    "Categoria": "Eletronico",
    "ValorPontos": 272,
    "Descricao": "Cupidatat cillum ea nulla officia nostrud Lorem. Esse incididunt amet minim exercitation excepteur tempor qui Lorem. In nostrud dolore adipisicing ullamco Lorem deserunt voluptate elit voluptate occaecat commodo eu fugiat tempor. Exercitation dolore dolor sint ex esse sunt Lorem ipsum consequat magna do enim excepteur do. Occaecat sunt id officia veniam quis proident eu laborum excepteur officia anim. Voluptate qui non eiusmod nisi do adipisicing irure esse cillum.",
    "Titulo": "Produto #1671"
  },
  {
    "Categoria": "DVD",
    "ValorPontos": 2426,
    "Descricao": "Irure labore qui velit tempor eu eiusmod reprehenderit ut sit. Pariatur pariatur cupidatat velit deserunt. Eiusmod exercitation amet eiusmod nisi cupidatat dolore fugiat ullamco in excepteur. Nulla elit laborum proident id proident cupidatat enim amet irure.",
    "Titulo": "Produto #1067"
  },
  {
    "Categoria": "CD",
    "ValorPontos": 3012,
    "Descricao": "Labore proident nulla aliquip magna mollit in amet consectetur proident enim est officia. Quis enim consectetur duis tempor nulla commodo duis do proident id amet. Pariatur sunt sunt aute minim labore magna cupidatat eiusmod et aliqua ea eiusmod. Sint velit magna exercitation laborum et ex ut culpa eu. Nostrud reprehenderit minim nisi id sint velit.",
    "Titulo": "Produto #779"
  },
  {
    "Categoria": "CD",
    "ValorPontos": 121,
    "Descricao": "Eiusmod mollit deserunt excepteur laborum incididunt dolor incididunt do aliqua. Laboris ad adipisicing fugiat aliqua in. Reprehenderit nisi Lorem aute pariatur fugiat exercitation laboris deserunt ullamco labore elit. Cillum irure labore sunt fugiat ea cupidatat velit voluptate sit aute excepteur aliquip nisi. Labore cupidatat incididunt excepteur quis enim exercitation proident eu magna ullamco sit.",
    "Titulo": "Produto #767"
  },
  {
    "Categoria": "DVD",
    "ValorPontos": 2374,
    "Descricao": "Eiusmod irure cillum commodo consequat cupidatat ad incididunt adipisicing consectetur enim irure. Tempor pariatur irure nisi commodo. In excepteur minim deserunt cillum cillum magna amet cupidatat incididunt. Ad irure elit excepteur ex sint duis adipisicing. Laborum proident et irure eu anim velit pariatur. Dolore voluptate et consectetur non exercitation dolore elit amet velit. Est eiusmod dolor dolor in ea ad.",
    "Titulo": "Produto #1325"
  },
  {
    "Categoria": "Informatica",
    "ValorPontos": 3962,
    "Descricao": "Proident sunt est elit esse. Do dolore sint non incididunt sit aute exercitation laboris. In Lorem adipisicing excepteur enim in nisi excepteur ullamco fugiat. Laboris id deserunt amet irure sunt cupidatat sint deserunt irure consequat velit est pariatur. Consectetur sint laborum in consequat dolor commodo. Esse est et et aliqua ullamco ex nulla pariatur aliquip ex.",
    "Titulo": "Produto #3280"
  },
  {
    "Categoria": "Beleza",
    "ValorPontos": 1204,
    "Descricao": "Cillum aliqua sit ut officia magna quis in occaecat labore. Ut elit et consectetur nisi eu irure nisi velit. Ullamco aliqua eu adipisicing proident officia in ut. Consequat aliqua qui elit exercitation sunt ex pariatur ut consequat magna ad eu tempor est. Veniam officia nisi aute et mollit exercitation ad in incididunt commodo non excepteur id exercitation. Qui esse non magna proident veniam in enim.",
    "Titulo": "Produto #3190"
  },
  {
    "Categoria": "Livro",
    "ValorPontos": 1608,
    "Descricao": "Magna consequat qui Lorem eiusmod reprehenderit anim labore labore culpa. Ea nisi non esse quis do aute irure laboris et deserunt duis. Velit officia elit laborum nostrud cupidatat consequat. Ullamco aliqua anim fugiat ex exercitation sint commodo eiusmod laborum amet ipsum minim cupidatat aliquip.",
    "Titulo": "Produto #2565"
  },
  {
    "Categoria": "Cozinha",
    "ValorPontos": 1695,
    "Descricao": "Dolore eu ad quis ullamco quis commodo dolore amet. Lorem sint occaecat pariatur cupidatat proident. Nisi veniam et veniam consequat exercitation sint cillum. Ut nisi eiusmod amet irure consectetur.",
    "Titulo": "Produto #3294"
  },
  {
    "Categoria": "DVD",
    "ValorPontos": 140,
    "Descricao": "Aliqua et et eiusmod non non magna anim. Tempor tempor et amet ad cupidatat enim ipsum ipsum occaecat cupidatat. Cillum dolore culpa commodo proident exercitation veniam in dolor irure. Adipisicing laboris anim culpa fugiat occaecat culpa nulla occaecat laborum anim. Cillum eu nisi sit qui ad mollit quis mollit voluptate ex ipsum eu cillum. Veniam irure irure tempor nisi fugiat ullamco. Est adipisicing sit proident culpa aute amet qui nulla Lorem aute non.",
    "Titulo": "Produto #24"
  },
  {
    "Categoria": "Beleza",
    "ValorPontos": 470,
    "Descricao": "Exercitation nostrud irure Lorem consectetur ex anim sit tempor. Dolore nulla officia elit culpa eiusmod laborum ex ex velit tempor et ipsum voluptate sunt. Dolore nulla ex duis ex adipisicing est incididunt eu laboris eiusmod quis voluptate ad. Lorem reprehenderit ipsum exercitation enim quis Lorem laborum cupidatat proident tempor incididunt. Reprehenderit veniam quis occaecat sunt sint nostrud commodo. Adipisicing dolore dolore excepteur nostrud id.",
    "Titulo": "Produto #2014"
  },
  {
    "Categoria": "Games",
    "ValorPontos": 630,
    "Descricao": "Est aute dolor duis et ullamco elit ipsum cupidatat magna sit tempor. Laborum excepteur velit cupidatat esse dolore occaecat nostrud et. Sunt ipsum consectetur qui enim nostrud anim magna in labore deserunt quis sit.",
    "Titulo": "Produto #2253"
  },
  {
    "Categoria": "Cozinha",
    "ValorPontos": 2232,
    "Descricao": "Sunt non esse irure aliqua. Tempor culpa laborum ad aute incididunt id laboris ea dolor excepteur est dolore. Amet do officia amet veniam aliquip duis. Laboris exercitation nisi nulla fugiat ad qui aliquip labore non et. Sint laboris ex incididunt deserunt consectetur irure anim occaecat adipisicing excepteur ullamco amet quis culpa. Esse eu dolore tempor ea nulla reprehenderit dolor culpa minim ad veniam tempor est. Irure amet nostrud aliqua elit tempor.",
    "Titulo": "Produto #1944"
  },
  {
    "Categoria": "Beleza",
    "ValorPontos": 2718,
    "Descricao": "Excepteur duis ea est pariatur laborum. Elit elit et reprehenderit reprehenderit in ex culpa exercitation ex eiusmod aliqua dolor. Culpa duis adipisicing mollit voluptate incididunt. Ea consectetur aute sunt consequat magna id cillum exercitation. Non esse ipsum exercitation non ex incididunt dolore voluptate in eiusmod sit quis occaecat quis. Exercitation ea commodo ut anim ex laboris amet nulla aute.",
    "Titulo": "Produto #2203"
  },
  {
    "Categoria": "Informatica",
    "ValorPontos": 715,
    "Descricao": "Dolore elit in sunt magna velit mollit anim proident pariatur laboris adipisicing in minim minim. Voluptate nisi labore anim sit culpa exercitation. Mollit qui et ipsum culpa.",
    "Titulo": "Produto #968"
  },
  {
    "Categoria": "Games",
    "ValorPontos": 1763,
    "Descricao": "Anim adipisicing do excepteur eiusmod culpa proident in eiusmod eiusmod aliqua nostrud magna elit sint. Consectetur do labore aliqua aliqua ullamco dolore. Anim sint cillum irure voluptate quis laboris veniam cupidatat. Officia elit qui Lorem ea aute do ullamco nostrud magna enim veniam.",
    "Titulo": "Produto #305"
  },
  {
    "Categoria": "Jardinagem",
    "ValorPontos": 1728,
    "Descricao": "Labore consectetur labore dolore do eiusmod excepteur. Culpa ea irure qui eiusmod culpa fugiat in exercitation. Reprehenderit cillum ullamco sit eu dolore. Exercitation laborum mollit eu nulla anim consequat elit do ut ut sunt minim sint.",
    "Titulo": "Produto #43"
  },
  {
    "Categoria": "Livro",
    "ValorPontos": 2030,
    "Descricao": "Qui minim ea reprehenderit laborum culpa ea quis exercitation. Proident proident ut commodo dolore anim Lorem ea eu officia nisi sint excepteur. Ipsum veniam consectetur in eiusmod qui do mollit ad eiusmod exercitation.",
    "Titulo": "Produto #851"
  },
  {
    "Categoria": "Cozinha",
    "ValorPontos": 1973,
    "Descricao": "Consequat irure deserunt in enim labore. Magna excepteur ea veniam pariatur. Ex pariatur elit ad non consequat qui ea consectetur ullamco sit. Cillum cupidatat voluptate cupidatat sunt elit amet cupidatat ut ut. Tempor dolor nulla commodo ut aute consequat ad Lorem duis occaecat fugiat ipsum magna dolore. Est sint consectetur ullamco duis duis nostrud consectetur minim exercitation ea occaecat. Lorem qui labore veniam nostrud exercitation sint fugiat ea tempor voluptate cillum laboris.",
    "Titulo": "Produto #2062"
  },
  {
    "Categoria": "Jardinagem",
    "ValorPontos": 2860,
    "Descricao": "Laborum deserunt exercitation eu anim in esse dolore nulla Lorem elit. Do minim ex incididunt elit exercitation cupidatat excepteur Lorem sint proident esse deserunt. Labore exercitation ipsum veniam occaecat. Velit id incididunt mollit labore velit esse eu do amet cupidatat eiusmod deserunt.",
    "Titulo": "Produto #534"
  },
  {
    "Categoria": "Eletronico",
    "ValorPontos": 2641,
    "Descricao": "Reprehenderit labore commodo elit sit id do culpa dolore. Et culpa irure Lorem aute tempor velit ut. Ea sint excepteur nulla qui excepteur quis sit culpa dolor incididunt qui. Officia nulla incididunt irure pariatur proident proident est Lorem ullamco nulla.",
    "Titulo": "Produto #3807"
  },
  {
    "Categoria": "CD",
    "ValorPontos": 3605,
    "Descricao": "Labore commodo qui cupidatat sunt dolore sunt ad deserunt. Non qui Lorem Lorem dolor laboris incididunt irure aute culpa fugiat incididunt ut pariatur. Culpa id non aliquip ipsum deserunt irure est.",
    "Titulo": "Produto #1234"
  },
  {
    "Categoria": "Cozinha",
    "ValorPontos": 1759,
    "Descricao": "Commodo non officia deserunt est veniam aute labore nisi in tempor enim enim incididunt. Lorem id consequat ut incididunt. Consectetur elit eu proident qui. Ex pariatur aute mollit eu sint occaecat proident laboris commodo mollit consectetur. Ipsum labore esse esse magna labore. Exercitation nostrud labore exercitation qui dolor dolor reprehenderit anim sint officia dolore sit pariatur. Veniam sunt eu ullamco laboris.",
    "Titulo": "Produto #2127"
  },
  {
    "Categoria": "Livro",
    "ValorPontos": 3724,
    "Descricao": "Labore exercitation id sit labore do nostrud ex ex. Labore labore amet ut eiusmod aute adipisicing deserunt ullamco laborum tempor sit sit cillum adipisicing. Mollit cillum nisi ad consectetur eiusmod culpa aliqua. Cillum culpa et sit nostrud quis magna amet sint culpa occaecat Lorem commodo. Eiusmod Lorem aliqua excepteur laboris non elit consectetur laboris dolor laboris minim id deserunt anim.",
    "Titulo": "Produto #27"
  },
  {
    "Categoria": "DVD",
    "ValorPontos": 3099,
    "Descricao": "Enim esse fugiat aliquip enim incididunt anim anim ex quis. Elit amet amet magna sint voluptate exercitation tempor enim reprehenderit. Ipsum sint deserunt duis anim proident pariatur culpa commodo adipisicing incididunt sit. In laborum minim do officia pariatur ullamco quis consequat. Irure Lorem reprehenderit dolore sunt id qui nisi.",
    "Titulo": "Produto #1725"
  },
  {
    "Categoria": "Games",
    "ValorPontos": 2790,
    "Descricao": "Aliqua amet consectetur pariatur aliquip esse incididunt officia eu nulla. Culpa veniam cupidatat voluptate enim elit aute enim sint cillum ut. Eu anim mollit eu sit sunt aute enim non deserunt velit id deserunt magna consectetur. Est incididunt do irure deserunt mollit ea Lorem sunt qui voluptate. Minim et in aliquip esse sint.",
    "Titulo": "Produto #2985"
  },
  {
    "Categoria": "Informatica",
    "ValorPontos": 920,
    "Descricao": "Laborum aliquip et incididunt mollit commodo laborum nulla occaecat deserunt. Nostrud sint dolor aliqua sint amet fugiat ullamco incididunt officia. Elit dolore ea quis voluptate duis eu aliquip. Voluptate proident nulla ipsum aliquip reprehenderit ea sint proident duis eiusmod Lorem dolor occaecat. Excepteur sint incididunt irure veniam laboris cupidatat qui officia nisi ullamco consectetur. Aute Lorem sint dolor duis aute sit. Aliquip Lorem amet irure officia est dolor.",
    "Titulo": "Produto #3814"
  },
  {
    "Categoria": "Jardinagem",
    "ValorPontos": 3659,
    "Descricao": "Consectetur aute excepteur fugiat consequat quis voluptate veniam proident nulla do sit aliquip ea. Ea ea reprehenderit excepteur ad do labore laboris elit voluptate. Nulla ipsum reprehenderit sunt mollit minim adipisicing culpa in do ea. Ipsum non nulla eu occaecat in consequat nostrud nisi labore dolore nisi irure aliqua excepteur. Tempor Lorem eiusmod esse sunt sint.",
    "Titulo": "Produto #3832"
  },
  {
    "Categoria": "Eletronico",
    "ValorPontos": 466,
    "Descricao": "Ea consectetur elit aliquip minim. Commodo esse esse nisi in. Consequat ipsum Lorem Lorem velit qui pariatur labore consectetur qui. Proident ea reprehenderit tempor incididunt mollit aliquip. Deserunt ad labore do veniam tempor dolor qui laborum minim.",
    "Titulo": "Produto #427"
  },
  {
    "Categoria": "Livro",
    "ValorPontos": 2472,
    "Descricao": "Aute voluptate sint officia laboris amet voluptate nostrud pariatur excepteur cupidatat laborum nisi. Deserunt minim aliquip elit magna adipisicing duis labore eiusmod. Lorem cupidatat nulla labore culpa est voluptate aliquip laborum ullamco ullamco eiusmod magna. Eu dolor quis eiusmod dolor eiusmod Lorem laboris esse.",
    "Titulo": "Produto #1327"
  },
  {
    "Categoria": "Livro",
    "ValorPontos": 3263,
    "Descricao": "Magna fugiat proident dolor veniam est cupidatat ipsum sit. Consectetur ipsum pariatur ex incididunt elit cupidatat ea velit est. Deserunt sit cupidatat cillum minim eiusmod deserunt sit pariatur. Proident elit cupidatat sint tempor commodo est officia sint do labore Lorem culpa et esse. Esse duis sint eu ex minim incididunt id labore ea nisi pariatur duis velit voluptate. Nisi ullamco dolor irure do. Nostrud occaecat exercitation culpa minim in enim ea consequat quis.",
    "Titulo": "Produto #3004"
  },
  {
    "Categoria": "Jardinagem",
    "ValorPontos": 3953,
    "Descricao": "Enim voluptate sunt anim velit eu qui irure ex exercitation aliqua aliquip. Ipsum nostrud eiusmod ullamco et officia labore voluptate sunt mollit. Fugiat pariatur exercitation occaecat esse ipsum ut nisi. Amet eiusmod commodo consequat deserunt duis laborum non ullamco dolore. Incididunt esse excepteur non aliquip tempor laborum ullamco excepteur consectetur sunt aute quis.",
    "Titulo": "Produto #1409"
  },
  {
    "Categoria": "CD",
    "ValorPontos": 3527,
    "Descricao": "Adipisicing mollit sunt elit irure duis consectetur in quis quis nulla reprehenderit duis excepteur eiusmod. Pariatur culpa quis voluptate aliqua dolor Lorem ut deserunt officia exercitation velit elit velit. Reprehenderit deserunt tempor magna ullamco id fugiat consectetur ullamco enim. Duis et commodo nulla reprehenderit.",
    "Titulo": "Produto #1516"
  },
  {
    "Categoria": "CD",
    "ValorPontos": 81,
    "Descricao": "Magna aute nisi quis qui ut dolore ex sit qui dolor dolore enim. Magna incididunt esse commodo duis culpa ea. Sint Lorem consectetur sit ea nostrud. Qui aute consequat eiusmod dolore id officia minim esse do magna culpa voluptate anim nostrud. Laborum fugiat laboris adipisicing ullamco fugiat minim id voluptate.",
    "Titulo": "Produto #654"
  },
  {
    "Categoria": "Eletronico",
    "ValorPontos": 1697,
    "Descricao": "Nisi culpa aute sunt ut amet ex ullamco est. Sint ut sit occaecat eiusmod proident proident. In qui ea ea sint cillum nulla duis Lorem elit cupidatat quis.",
    "Titulo": "Produto #1203"
  },
  {
    "Categoria": "Cozinha",
    "ValorPontos": 2345,
    "Descricao": "Officia enim sunt id Lorem non aliquip. Quis ut ad esse non culpa laboris sunt nisi quis aliquip Lorem quis minim id. Ipsum duis culpa pariatur ullamco occaecat amet. Officia est sint culpa anim anim voluptate non esse anim in. Est ea adipisicing officia deserunt proident velit adipisicing. Nostrud veniam adipisicing duis officia sit culpa in in sunt aliqua mollit do dolore. Laboris eu mollit aute est reprehenderit aute deserunt voluptate dolore.",
    "Titulo": "Produto #3767"
  },
  {
    "Categoria": "Games",
    "ValorPontos": 2358,
    "Descricao": "Cillum in consequat velit ut aute laborum. Ullamco aliquip amet nulla fugiat excepteur quis dolor esse. Voluptate consequat non consectetur nostrud aute laboris amet. In deserunt ut sint ut commodo mollit laborum ex labore ullamco sunt ullamco. Officia cupidatat eu quis sit eiusmod magna deserunt anim ipsum proident excepteur do consequat.",
    "Titulo": "Produto #1558"
  },
  {
    "Categoria": "Games",
    "ValorPontos": 3397,
    "Descricao": "Ea est sit veniam nulla non. Exercitation laborum commodo aute adipisicing irure enim anim. Ea proident qui consectetur tempor consequat est dolor nulla eu nulla.",
    "Titulo": "Produto #140"
  },
  {
    "Categoria": "Games",
    "ValorPontos": 2116,
    "Descricao": "Non sit pariatur dolore mollit cillum ut. Minim officia irure qui esse non officia minim magna irure aliquip adipisicing deserunt. Aliquip aute officia ea non non.",
    "Titulo": "Produto #3788"
  },
  {
    "Categoria": "Eletronico",
    "ValorPontos": 2969,
    "Descricao": "In sunt est aliqua qui dolor reprehenderit reprehenderit ad mollit qui reprehenderit Lorem. Ad consectetur officia ad quis officia velit qui non deserunt ea. Velit ea ea eu laborum nulla ad aliquip ex laboris qui amet. Commodo ullamco voluptate irure consectetur quis eiusmod qui culpa magna proident laboris dolor magna ex. Tempor consequat officia ut non aliqua cillum id culpa proident duis ipsum commodo nulla. Ex anim aute exercitation laboris dolor deserunt veniam elit veniam. Nisi officia amet ad proident eu esse veniam tempor et elit.",
    "Titulo": "Produto #1243"
  },
  {
    "Categoria": "Games",
    "ValorPontos": 948,
    "Descricao": "Ad id cupidatat duis consectetur est aliqua sit. Dolore reprehenderit veniam consectetur sint est ea dolor ut ut nostrud incididunt nostrud. Aliquip sunt velit laborum ad ea aliquip ex proident amet exercitation laborum. Amet incididunt velit aliqua culpa aliquip incididunt sit officia mollit occaecat pariatur ipsum consequat eu. Sint officia eu incididunt nulla excepteur duis excepteur eu proident.",
    "Titulo": "Produto #1423"
  },
  {
    "Categoria": "CD",
    "ValorPontos": 2372,
    "Descricao": "Amet esse nulla qui do nisi esse ex excepteur. Tempor dolor tempor aute excepteur velit eiusmod. Esse labore exercitation nostrud ut cupidatat ipsum excepteur ut. Sunt sit occaecat quis laborum ullamco in amet. Magna commodo consectetur anim voluptate nisi esse id do anim nisi in labore ad.",
    "Titulo": "Produto #568"
  },
  {
    "Categoria": "CD",
    "ValorPontos": 2628,
    "Descricao": "Ex voluptate voluptate aliquip sint adipisicing eu duis amet anim Lorem eu est. Nisi ullamco Lorem sint irure non tempor excepteur. Cupidatat ad non quis esse tempor cupidatat fugiat labore id pariatur nisi quis nostrud. Cillum deserunt do non irure eu Lorem aute enim et elit qui minim do in.",
    "Titulo": "Produto #3369"
  },
  {
    "Categoria": "Jardinagem",
    "ValorPontos": 3642,
    "Descricao": "Consequat occaecat sint id laborum qui adipisicing ad reprehenderit labore culpa eu officia adipisicing sunt. Elit laborum ipsum duis voluptate incididunt ea irure pariatur veniam. Cupidatat officia adipisicing deserunt anim ut. Aliqua velit reprehenderit ut consectetur qui amet id irure ad et deserunt culpa aute magna.",
    "Titulo": "Produto #3950"
  },
  {
    "Categoria": "Livro",
    "ValorPontos": 1915,
    "Descricao": "Et sint aliqua sunt nisi cillum aliqua labore aute elit deserunt ullamco. Nostrud ut esse fugiat velit proident ad. Incididunt nisi deserunt culpa velit anim aute enim dolore irure. Aute nisi exercitation aliquip officia ad consectetur nisi do adipisicing exercitation non laborum irure commodo. Exercitation nostrud et laboris mollit nisi elit ullamco amet culpa voluptate aute excepteur voluptate do.",
    "Titulo": "Produto #3287"
  },
  {
    "Categoria": "DVD",
    "ValorPontos": 3148,
    "Descricao": "Ex do dolore in occaecat irure aute exercitation sit cupidatat sit non cupidatat laborum. Deserunt magna elit consectetur dolore velit eiusmod eiusmod incididunt excepteur incididunt voluptate sit dolor. Officia ullamco dolor enim fugiat mollit aute do exercitation magna eiusmod ea. Proident consequat occaecat irure Lorem.",
    "Titulo": "Produto #832"
  },
  {
    "Categoria": "CD",
    "ValorPontos": 1927,
    "Descricao": "Consequat amet sint cillum et minim. Minim voluptate duis esse laborum dolore non adipisicing in reprehenderit nostrud sit eiusmod officia. Et consequat quis do officia mollit amet eiusmod. Eiusmod eiusmod incididunt aliqua velit incididunt mollit in tempor mollit aute nostrud commodo.",
    "Titulo": "Produto #1495"
  },
  {
    "Categoria": "Livro",
    "ValorPontos": 3981,
    "Descricao": "Velit sunt cupidatat sit minim amet incididunt anim reprehenderit cupidatat eiusmod adipisicing occaecat laboris occaecat. Elit nostrud laborum cillum consectetur nisi amet id commodo deserunt nisi magna ullamco. Amet aute ut est officia sint magna nulla culpa reprehenderit voluptate esse. Occaecat minim duis consequat veniam duis incididunt ullamco fugiat. Irure ipsum commodo pariatur eu qui cillum voluptate ipsum nulla. Excepteur minim ad veniam proident fugiat.",
    "Titulo": "Produto #1619"
  },
  {
    "Categoria": "Livro",
    "ValorPontos": 1890,
    "Descricao": "Pariatur nulla nisi amet velit. Voluptate incididunt consectetur pariatur elit voluptate elit. Elit sit veniam quis officia quis sint amet veniam ex excepteur duis.",
    "Titulo": "Produto #1977"
  },
  {
    "Categoria": "DVD",
    "ValorPontos": 2253,
    "Descricao": "Reprehenderit ut fugiat cupidatat ipsum minim. Sit tempor qui anim voluptate dolore consectetur. Adipisicing occaecat quis ullamco est voluptate aute ex occaecat nisi pariatur aliqua quis cillum nisi.",
    "Titulo": "Produto #1793"
  },
  {
    "Categoria": "Eletronico",
    "ValorPontos": 2665,
    "Descricao": "Laborum officia cupidatat laborum nulla culpa adipisicing. Minim culpa do anim commodo labore et commodo enim mollit nisi ullamco ad consectetur id. Eu occaecat id nostrud qui dolor nostrud deserunt nisi consectetur minim ad. Nisi nostrud amet pariatur nostrud. Ex adipisicing ullamco tempor ea adipisicing pariatur esse amet cupidatat excepteur quis cupidatat. Tempor do excepteur incididunt cupidatat eu elit cillum. Aute eu consectetur cupidatat irure sint deserunt.",
    "Titulo": "Produto #2153"
  },
  {
    "Categoria": "Games",
    "ValorPontos": 2217,
    "Descricao": "Velit excepteur duis labore sit ex voluptate occaecat Lorem consectetur qui cillum aliquip ut culpa. Cillum ipsum esse reprehenderit minim adipisicing mollit. Dolore magna culpa sit id laboris et aute magna consectetur tempor veniam enim minim. Commodo tempor ex nisi Lorem mollit proident sint elit deserunt ipsum exercitation irure consectetur consectetur. Aute esse eu mollit ad id officia magna Lorem cupidatat minim do veniam commodo. In duis anim pariatur veniam elit pariatur sint.",
    "Titulo": "Produto #1971"
  },
  {
    "Categoria": "DVD",
    "ValorPontos": 1921,
    "Descricao": "Dolore do Lorem aute ex enim in consectetur incididunt eiusmod eiusmod nostrud do. Tempor labore mollit et cillum ipsum exercitation ullamco duis dolore reprehenderit. Eu anim anim reprehenderit nisi elit ex dolore dolore Lorem dolor ullamco.",
    "Titulo": "Produto #2199"
  },
  {
    "Categoria": "CD",
    "ValorPontos": 2685,
    "Descricao": "Pariatur et esse pariatur cupidatat deserunt tempor. Excepteur tempor et in enim. Est ut sunt amet dolore eu pariatur elit sunt cupidatat ad commodo. Ullamco reprehenderit enim proident amet nisi do tempor in mollit nostrud adipisicing Lorem minim. Aliqua esse proident sit veniam in exercitation sit. Sint pariatur consequat anim dolor occaecat magna reprehenderit voluptate officia voluptate velit nisi deserunt.",
    "Titulo": "Produto #2344"
  },
  {
    "Categoria": "Informatica",
    "ValorPontos": 2473,
    "Descricao": "Velit magna cillum commodo consectetur do dolor excepteur ullamco sunt ex ullamco. Nulla nisi nulla quis cillum culpa nostrud ullamco eiusmod anim. Reprehenderit consectetur anim magna elit Lorem aliquip. Cillum id qui id dolore excepteur.",
    "Titulo": "Produto #3785"
  },
  {
    "Categoria": "Games",
    "ValorPontos": 3594,
    "Descricao": "Minim id aliqua magna adipisicing nostrud Lorem labore reprehenderit amet do non commodo deserunt. Quis labore et irure excepteur pariatur excepteur quis mollit sint. In proident sint eu ullamco laborum adipisicing irure aliqua eu ex ullamco. Non culpa officia eu laboris culpa aliquip veniam commodo elit ullamco non.",
    "Titulo": "Produto #3658"
  },
  {
    "Categoria": "Games",
    "ValorPontos": 1380,
    "Descricao": "Ullamco dolore sit est veniam velit laborum do aliquip voluptate irure eiusmod labore veniam. Laboris sint esse nisi reprehenderit ullamco velit amet. Quis est minim nisi ea sit sunt culpa dolore nulla consectetur tempor.",
    "Titulo": "Produto #3987"
  },
  {
    "Categoria": "Games",
    "ValorPontos": 392,
    "Descricao": "Fugiat non eiusmod non adipisicing id culpa reprehenderit ad aute ex fugiat in. Duis aliquip id aliquip elit et minim cillum dolor et nisi eiusmod mollit aliqua. Fugiat culpa incididunt cillum officia aute in minim. Ipsum deserunt cupidatat nisi ex pariatur duis ut aliqua.",
    "Titulo": "Produto #3004"
  },
   {
      "Titulo": "Produto #2631",
      "Descricao": "Elit duis ea qui magna id proident dolor officia dolore exercitation sunt adipisicing non. Officia non magna amet exercitation officia pariatur nostrud velit ex labore ullamco ad. Deserunt irure laboris exercitation quis. Mollit minim reprehenderit ex irure voluptate deserunt irure dolore cupidatat Lorem sunt occaecat voluptate. Laborum proident proident sunt est ad elit et cillum. Mollit sunt quis pariatur eiusmod nisi.",
      "ValorPontos": 1468,
      "Categoria": "CD"
    },
    {
      "Titulo": "Produto #1769",
      "Descricao": "Dolore Lorem duis elit ullamco qui occaecat commodo laborum exercitation qui ea. Reprehenderit in eiusmod officia aute cillum consectetur esse sit. Dolore aliqua enim qui laboris commodo ut aliquip magna ullamco mollit non. Deserunt esse ullamco enim incididunt.",
      "ValorPontos": 1462,
      "Categoria": "CD"
    },
    {
      "Titulo": "Produto #702",
      "Descricao": "Officia anim ut sit sunt non ex magna duis. Velit deserunt deserunt id enim proident eiusmod deserunt culpa nostrud qui excepteur pariatur. Lorem consequat Lorem quis anim ipsum enim irure ad consectetur aute do nulla. Aliqua ea tempor proident exercitation adipisicing non in anim. Veniam qui labore duis sint minim est excepteur non non officia anim.",
      "ValorPontos": 394,
      "Categoria": "DVD"
    },
    {
      "Titulo": "Produto #343",
      "Descricao": "Eu exercitation amet nulla cupidatat ex nulla dolore. Pariatur anim magna deserunt ullamco deserunt aliqua est aute elit excepteur do esse. Voluptate occaecat sit occaecat duis reprehenderit excepteur mollit deserunt. Eiusmod non veniam commodo veniam amet occaecat elit consequat. Irure nulla laboris laboris enim magna. Ullamco ut aliqua dolore ullamco id ut laboris. Enim id in tempor culpa.",
      "ValorPontos": 309,
      "Categoria": "Jardinagem"
    },
    {
      "Titulo": "Produto #1818",
      "Descricao": "Laboris ullamco nulla cillum ea enim sint officia reprehenderit sint est. Ea non nostrud incididunt sint irure officia est incididunt dolore id anim. Ullamco incididunt dolor in aliquip amet nisi reprehenderit laboris do.",
      "ValorPontos": 2534,
      "Categoria": "Jardinagem"
    },
    {
      "Titulo": "Produto #1154",
      "Descricao": "Excepteur eiusmod dolor deserunt laboris ullamco id ea qui dolore dolor tempor incididunt consectetur. Deserunt ad fugiat duis deserunt Lorem eiusmod id. Mollit est eiusmod velit anim dolor irure laboris irure. Excepteur adipisicing sunt ipsum est proident culpa anim mollit culpa deserunt irure excepteur exercitation.",
      "ValorPontos": 2262,
      "Categoria": "Beleza"
    },
    {
      "Titulo": "Produto #3055",
      "Descricao": "Cupidatat incididunt est nulla incididunt incididunt fugiat laborum cupidatat. Ut minim nostrud laborum deserunt esse proident cupidatat ea cupidatat sint deserunt dolor consectetur. Est eu mollit voluptate dolore enim. Cillum laborum dolore ipsum proident exercitation nulla proident sint est reprehenderit ut duis magna officia. Esse laboris nisi minim qui ipsum veniam ullamco fugiat cupidatat enim aliquip non ex. Laboris consequat consequat nulla dolore non ex aliquip duis fugiat id id elit. Do cillum amet cillum ex duis.",
      "ValorPontos": 3704,
      "Categoria": "Eletronico"
    },
    {
      "Titulo": "Produto #2375",
      "Descricao": "Nostrud in exercitation fugiat sint anim et. Esse culpa esse cillum labore quis est dolore elit exercitation ullamco do Lorem. Deserunt excepteur dolore magna sunt fugiat laboris commodo non mollit.",
      "ValorPontos": 3257,
      "Categoria": "Informatica"
    },
    {
      "Titulo": "Produto #1671",
      "Descricao": "Cupidatat cillum ea nulla officia nostrud Lorem. Esse incididunt amet minim exercitation excepteur tempor qui Lorem. In nostrud dolore adipisicing ullamco Lorem deserunt voluptate elit voluptate occaecat commodo eu fugiat tempor. Exercitation dolore dolor sint ex esse sunt Lorem ipsum consequat magna do enim excepteur do. Occaecat sunt id officia veniam quis proident eu laborum excepteur officia anim. Voluptate qui non eiusmod nisi do adipisicing irure esse cillum.",
      "ValorPontos": 272,
      "Categoria": "Eletronico"
    },
    {
      "Titulo": "Produto #1067",
      "Descricao": "Irure labore qui velit tempor eu eiusmod reprehenderit ut sit. Pariatur pariatur cupidatat velit deserunt. Eiusmod exercitation amet eiusmod nisi cupidatat dolore fugiat ullamco in excepteur. Nulla elit laborum proident id proident cupidatat enim amet irure.",
      "ValorPontos": 2426,
      "Categoria": "DVD"
    },
    {
      "Titulo": "Produto #779",
      "Descricao": "Labore proident nulla aliquip magna mollit in amet consectetur proident enim est officia. Quis enim consectetur duis tempor nulla commodo duis do proident id amet. Pariatur sunt sunt aute minim labore magna cupidatat eiusmod et aliqua ea eiusmod. Sint velit magna exercitation laborum et ex ut culpa eu. Nostrud reprehenderit minim nisi id sint velit.",
      "ValorPontos": 3012,
      "Categoria": "CD"
    },
    {
      "Titulo": "Produto #767",
      "Descricao": "Eiusmod mollit deserunt excepteur laborum incididunt dolor incididunt do aliqua. Laboris ad adipisicing fugiat aliqua in. Reprehenderit nisi Lorem aute pariatur fugiat exercitation laboris deserunt ullamco labore elit. Cillum irure labore sunt fugiat ea cupidatat velit voluptate sit aute excepteur aliquip nisi. Labore cupidatat incididunt excepteur quis enim exercitation proident eu magna ullamco sit.",
      "ValorPontos": 121,
      "Categoria": "CD"
    },
    {
      "Titulo": "Produto #1325",
      "Descricao": "Eiusmod irure cillum commodo consequat cupidatat ad incididunt adipisicing consectetur enim irure. Tempor pariatur irure nisi commodo. In excepteur minim deserunt cillum cillum magna amet cupidatat incididunt. Ad irure elit excepteur ex sint duis adipisicing. Laborum proident et irure eu anim velit pariatur. Dolore voluptate et consectetur non exercitation dolore elit amet velit. Est eiusmod dolor dolor in ea ad.",
      "ValorPontos": 2374,
      "Categoria": "DVD"
    },
    {
      "Titulo": "Produto #3280",
      "Descricao": "Proident sunt est elit esse. Do dolore sint non incididunt sit aute exercitation laboris. In Lorem adipisicing excepteur enim in nisi excepteur ullamco fugiat. Laboris id deserunt amet irure sunt cupidatat sint deserunt irure consequat velit est pariatur. Consectetur sint laborum in consequat dolor commodo. Esse est et et aliqua ullamco ex nulla pariatur aliquip ex.",
      "ValorPontos": 3962,
      "Categoria": "Informatica"
    },
    {
      "Titulo": "Produto #3190",
      "Descricao": "Cillum aliqua sit ut officia magna quis in occaecat labore. Ut elit et consectetur nisi eu irure nisi velit. Ullamco aliqua eu adipisicing proident officia in ut. Consequat aliqua qui elit exercitation sunt ex pariatur ut consequat magna ad eu tempor est. Veniam officia nisi aute et mollit exercitation ad in incididunt commodo non excepteur id exercitation. Qui esse non magna proident veniam in enim.",
      "ValorPontos": 1204,
      "Categoria": "Beleza"
    },
    {
      "Titulo": "Produto #2565",
      "Descricao": "Magna consequat qui Lorem eiusmod reprehenderit anim labore labore culpa. Ea nisi non esse quis do aute irure laboris et deserunt duis. Velit officia elit laborum nostrud cupidatat consequat. Ullamco aliqua anim fugiat ex exercitation sint commodo eiusmod laborum amet ipsum minim cupidatat aliquip.",
      "ValorPontos": 1608,
      "Categoria": "Livro"
    },
    {
      "Titulo": "Produto #3294",
      "Descricao": "Dolore eu ad quis ullamco quis commodo dolore amet. Lorem sint occaecat pariatur cupidatat proident. Nisi veniam et veniam consequat exercitation sint cillum. Ut nisi eiusmod amet irure consectetur.",
      "ValorPontos": 1695,
      "Categoria": "Cozinha"
    },
    {
      "Titulo": "Produto #24",
      "Descricao": "Aliqua et et eiusmod non non magna anim. Tempor tempor et amet ad cupidatat enim ipsum ipsum occaecat cupidatat. Cillum dolore culpa commodo proident exercitation veniam in dolor irure. Adipisicing laboris anim culpa fugiat occaecat culpa nulla occaecat laborum anim. Cillum eu nisi sit qui ad mollit quis mollit voluptate ex ipsum eu cillum. Veniam irure irure tempor nisi fugiat ullamco. Est adipisicing sit proident culpa aute amet qui nulla Lorem aute non.",
      "ValorPontos": 140,
      "Categoria": "DVD"
    },
    {
      "Titulo": "Produto #2014",
      "Descricao": "Exercitation nostrud irure Lorem consectetur ex anim sit tempor. Dolore nulla officia elit culpa eiusmod laborum ex ex velit tempor et ipsum voluptate sunt. Dolore nulla ex duis ex adipisicing est incididunt eu laboris eiusmod quis voluptate ad. Lorem reprehenderit ipsum exercitation enim quis Lorem laborum cupidatat proident tempor incididunt. Reprehenderit veniam quis occaecat sunt sint nostrud commodo. Adipisicing dolore dolore excepteur nostrud id.",
      "ValorPontos": 470,
      "Categoria": "Beleza"
    },
    {
      "Titulo": "Produto #2253",
      "Descricao": "Est aute dolor duis et ullamco elit ipsum cupidatat magna sit tempor. Laborum excepteur velit cupidatat esse dolore occaecat nostrud et. Sunt ipsum consectetur qui enim nostrud anim magna in labore deserunt quis sit.",
      "ValorPontos": 630,
      "Categoria": "Games"
    },
    {
      "Titulo": "Produto #1944",
      "Descricao": "Sunt non esse irure aliqua. Tempor culpa laborum ad aute incididunt id laboris ea dolor excepteur est dolore. Amet do officia amet veniam aliquip duis. Laboris exercitation nisi nulla fugiat ad qui aliquip labore non et. Sint laboris ex incididunt deserunt consectetur irure anim occaecat adipisicing excepteur ullamco amet quis culpa. Esse eu dolore tempor ea nulla reprehenderit dolor culpa minim ad veniam tempor est. Irure amet nostrud aliqua elit tempor.",
      "ValorPontos": 2232,
      "Categoria": "Cozinha"
    },
    {
      "Titulo": "Produto #2203",
      "Descricao": "Excepteur duis ea est pariatur laborum. Elit elit et reprehenderit reprehenderit in ex culpa exercitation ex eiusmod aliqua dolor. Culpa duis adipisicing mollit voluptate incididunt. Ea consectetur aute sunt consequat magna id cillum exercitation. Non esse ipsum exercitation non ex incididunt dolore voluptate in eiusmod sit quis occaecat quis. Exercitation ea commodo ut anim ex laboris amet nulla aute.",
      "ValorPontos": 2718,
      "Categoria": "Beleza"
    },
    {
      "Titulo": "Produto #968",
      "Descricao": "Dolore elit in sunt magna velit mollit anim proident pariatur laboris adipisicing in minim minim. Voluptate nisi labore anim sit culpa exercitation. Mollit qui et ipsum culpa.",
      "ValorPontos": 715,
      "Categoria": "Informatica"
    },
    {
      "Titulo": "Produto #305",
      "Descricao": "Anim adipisicing do excepteur eiusmod culpa proident in eiusmod eiusmod aliqua nostrud magna elit sint. Consectetur do labore aliqua aliqua ullamco dolore. Anim sint cillum irure voluptate quis laboris veniam cupidatat. Officia elit qui Lorem ea aute do ullamco nostrud magna enim veniam.",
      "ValorPontos": 1763,
      "Categoria": "Games"
    },
    {
      "Titulo": "Produto #43",
      "Descricao": "Labore consectetur labore dolore do eiusmod excepteur. Culpa ea irure qui eiusmod culpa fugiat in exercitation. Reprehenderit cillum ullamco sit eu dolore. Exercitation laborum mollit eu nulla anim consequat elit do ut ut sunt minim sint.",
      "ValorPontos": 1728,
      "Categoria": "Jardinagem"
    },
    {
      "Titulo": "Produto #851",
      "Descricao": "Qui minim ea reprehenderit laborum culpa ea quis exercitation. Proident proident ut commodo dolore anim Lorem ea eu officia nisi sint excepteur. Ipsum veniam consectetur in eiusmod qui do mollit ad eiusmod exercitation.",
      "ValorPontos": 2030,
      "Categoria": "Livro"
    },
    {
      "Titulo": "Produto #2062",
      "Descricao": "Consequat irure deserunt in enim labore. Magna excepteur ea veniam pariatur. Ex pariatur elit ad non consequat qui ea consectetur ullamco sit. Cillum cupidatat voluptate cupidatat sunt elit amet cupidatat ut ut. Tempor dolor nulla commodo ut aute consequat ad Lorem duis occaecat fugiat ipsum magna dolore. Est sint consectetur ullamco duis duis nostrud consectetur minim exercitation ea occaecat. Lorem qui labore veniam nostrud exercitation sint fugiat ea tempor voluptate cillum laboris.",
      "ValorPontos": 1973,
      "Categoria": "Cozinha"
    },
    {
      "Titulo": "Produto #534",
      "Descricao": "Laborum deserunt exercitation eu anim in esse dolore nulla Lorem elit. Do minim ex incididunt elit exercitation cupidatat excepteur Lorem sint proident esse deserunt. Labore exercitation ipsum veniam occaecat. Velit id incididunt mollit labore velit esse eu do amet cupidatat eiusmod deserunt.",
      "ValorPontos": 2860,
      "Categoria": "Jardinagem"
    },
    {
      "Titulo": "Produto #3807",
      "Descricao": "Reprehenderit labore commodo elit sit id do culpa dolore. Et culpa irure Lorem aute tempor velit ut. Ea sint excepteur nulla qui excepteur quis sit culpa dolor incididunt qui. Officia nulla incididunt irure pariatur proident proident est Lorem ullamco nulla.",
      "ValorPontos": 2641,
      "Categoria": "Eletronico"
    },
    {
      "Titulo": "Produto #1234",
      "Descricao": "Labore commodo qui cupidatat sunt dolore sunt ad deserunt. Non qui Lorem Lorem dolor laboris incididunt irure aute culpa fugiat incididunt ut pariatur. Culpa id non aliquip ipsum deserunt irure est.",
      "ValorPontos": 3605,
      "Categoria": "CD"
    },
    {
      "Titulo": "Produto #2127",
      "Descricao": "Commodo non officia deserunt est veniam aute labore nisi in tempor enim enim incididunt. Lorem id consequat ut incididunt. Consectetur elit eu proident qui. Ex pariatur aute mollit eu sint occaecat proident laboris commodo mollit consectetur. Ipsum labore esse esse magna labore. Exercitation nostrud labore exercitation qui dolor dolor reprehenderit anim sint officia dolore sit pariatur. Veniam sunt eu ullamco laboris.",
      "ValorPontos": 1759,
      "Categoria": "Cozinha"
    },
    {
      "Titulo": "Produto #27",
      "Descricao": "Labore exercitation id sit labore do nostrud ex ex. Labore labore amet ut eiusmod aute adipisicing deserunt ullamco laborum tempor sit sit cillum adipisicing. Mollit cillum nisi ad consectetur eiusmod culpa aliqua. Cillum culpa et sit nostrud quis magna amet sint culpa occaecat Lorem commodo. Eiusmod Lorem aliqua excepteur laboris non elit consectetur laboris dolor laboris minim id deserunt anim.",
      "ValorPontos": 3724,
      "Categoria": "Livro"
    },
    {
      "Titulo": "Produto #1725",
      "Descricao": "Enim esse fugiat aliquip enim incididunt anim anim ex quis. Elit amet amet magna sint voluptate exercitation tempor enim reprehenderit. Ipsum sint deserunt duis anim proident pariatur culpa commodo adipisicing incididunt sit. In laborum minim do officia pariatur ullamco quis consequat. Irure Lorem reprehenderit dolore sunt id qui nisi.",
      "ValorPontos": 3099,
      "Categoria": "DVD"
    },
    {
      "Titulo": "Produto #2985",
      "Descricao": "Aliqua amet consectetur pariatur aliquip esse incididunt officia eu nulla. Culpa veniam cupidatat voluptate enim elit aute enim sint cillum ut. Eu anim mollit eu sit sunt aute enim non deserunt velit id deserunt magna consectetur. Est incididunt do irure deserunt mollit ea Lorem sunt qui voluptate. Minim et in aliquip esse sint.",
      "ValorPontos": 2790,
      "Categoria": "Games"
    },
    {
      "Titulo": "Produto #3814",
      "Descricao": "Laborum aliquip et incididunt mollit commodo laborum nulla occaecat deserunt. Nostrud sint dolor aliqua sint amet fugiat ullamco incididunt officia. Elit dolore ea quis voluptate duis eu aliquip. Voluptate proident nulla ipsum aliquip reprehenderit ea sint proident duis eiusmod Lorem dolor occaecat. Excepteur sint incididunt irure veniam laboris cupidatat qui officia nisi ullamco consectetur. Aute Lorem sint dolor duis aute sit. Aliquip Lorem amet irure officia est dolor.",
      "ValorPontos": 920,
      "Categoria": "Informatica"
    },
    {
      "Titulo": "Produto #3832",
      "Descricao": "Consectetur aute excepteur fugiat consequat quis voluptate veniam proident nulla do sit aliquip ea. Ea ea reprehenderit excepteur ad do labore laboris elit voluptate. Nulla ipsum reprehenderit sunt mollit minim adipisicing culpa in do ea. Ipsum non nulla eu occaecat in consequat nostrud nisi labore dolore nisi irure aliqua excepteur. Tempor Lorem eiusmod esse sunt sint.",
      "ValorPontos": 3659,
      "Categoria": "Jardinagem"
    },
    {
      "Titulo": "Produto #427",
      "Descricao": "Ea consectetur elit aliquip minim. Commodo esse esse nisi in. Consequat ipsum Lorem Lorem velit qui pariatur labore consectetur qui. Proident ea reprehenderit tempor incididunt mollit aliquip. Deserunt ad labore do veniam tempor dolor qui laborum minim.",
      "ValorPontos": 466,
      "Categoria": "Eletronico"
    },
    {
      "Titulo": "Produto #1327",
      "Descricao": "Aute voluptate sint officia laboris amet voluptate nostrud pariatur excepteur cupidatat laborum nisi. Deserunt minim aliquip elit magna adipisicing duis labore eiusmod. Lorem cupidatat nulla labore culpa est voluptate aliquip laborum ullamco ullamco eiusmod magna. Eu dolor quis eiusmod dolor eiusmod Lorem laboris esse.",
      "ValorPontos": 2472,
      "Categoria": "Livro"
    },
    {
      "Titulo": "Produto #3004",
      "Descricao": "Magna fugiat proident dolor veniam est cupidatat ipsum sit. Consectetur ipsum pariatur ex incididunt elit cupidatat ea velit est. Deserunt sit cupidatat cillum minim eiusmod deserunt sit pariatur. Proident elit cupidatat sint tempor commodo est officia sint do labore Lorem culpa et esse. Esse duis sint eu ex minim incididunt id labore ea nisi pariatur duis velit voluptate. Nisi ullamco dolor irure do. Nostrud occaecat exercitation culpa minim in enim ea consequat quis.",
      "ValorPontos": 3263,
      "Categoria": "Livro"
    },
    {
      "Titulo": "Produto #1409",
      "Descricao": "Enim voluptate sunt anim velit eu qui irure ex exercitation aliqua aliquip. Ipsum nostrud eiusmod ullamco et officia labore voluptate sunt mollit. Fugiat pariatur exercitation occaecat esse ipsum ut nisi. Amet eiusmod commodo consequat deserunt duis laborum non ullamco dolore. Incididunt esse excepteur non aliquip tempor laborum ullamco excepteur consectetur sunt aute quis.",
      "ValorPontos": 3953,
      "Categoria": "Jardinagem"
    },
    {
      "Titulo": "Produto #1516",
      "Descricao": "Adipisicing mollit sunt elit irure duis consectetur in quis quis nulla reprehenderit duis excepteur eiusmod. Pariatur culpa quis voluptate aliqua dolor Lorem ut deserunt officia exercitation velit elit velit. Reprehenderit deserunt tempor magna ullamco id fugiat consectetur ullamco enim. Duis et commodo nulla reprehenderit.",
      "ValorPontos": 3527,
      "Categoria": "CD"
    },
    {
      "Titulo": "Produto #654",
      "Descricao": "Magna aute nisi quis qui ut dolore ex sit qui dolor dolore enim. Magna incididunt esse commodo duis culpa ea. Sint Lorem consectetur sit ea nostrud. Qui aute consequat eiusmod dolore id officia minim esse do magna culpa voluptate anim nostrud. Laborum fugiat laboris adipisicing ullamco fugiat minim id voluptate.",
      "ValorPontos": 81,
      "Categoria": "CD"
    },
    {
      "Titulo": "Produto #1203",
      "Descricao": "Nisi culpa aute sunt ut amet ex ullamco est. Sint ut sit occaecat eiusmod proident proident. In qui ea ea sint cillum nulla duis Lorem elit cupidatat quis.",
      "ValorPontos": 1697,
      "Categoria": "Eletronico"
    },
    {
      "Titulo": "Produto #3767",
      "Descricao": "Officia enim sunt id Lorem non aliquip. Quis ut ad esse non culpa laboris sunt nisi quis aliquip Lorem quis minim id. Ipsum duis culpa pariatur ullamco occaecat amet. Officia est sint culpa anim anim voluptate non esse anim in. Est ea adipisicing officia deserunt proident velit adipisicing. Nostrud veniam adipisicing duis officia sit culpa in in sunt aliqua mollit do dolore. Laboris eu mollit aute est reprehenderit aute deserunt voluptate dolore.",
      "ValorPontos": 2345,
      "Categoria": "Cozinha"
    },
    {
      "Titulo": "Produto #1558",
      "Descricao": "Cillum in consequat velit ut aute laborum. Ullamco aliquip amet nulla fugiat excepteur quis dolor esse. Voluptate consequat non consectetur nostrud aute laboris amet. In deserunt ut sint ut commodo mollit laborum ex labore ullamco sunt ullamco. Officia cupidatat eu quis sit eiusmod magna deserunt anim ipsum proident excepteur do consequat.",
      "ValorPontos": 2358,
      "Categoria": "Games"
    },
    {
      "Titulo": "Produto #140",
      "Descricao": "Ea est sit veniam nulla non. Exercitation laborum commodo aute adipisicing irure enim anim. Ea proident qui consectetur tempor consequat est dolor nulla eu nulla.",
      "ValorPontos": 3397,
      "Categoria": "Games"
    },
    {
      "Titulo": "Produto #3788",
      "Descricao": "Non sit pariatur dolore mollit cillum ut. Minim officia irure qui esse non officia minim magna irure aliquip adipisicing deserunt. Aliquip aute officia ea non non.",
      "ValorPontos": 2116,
      "Categoria": "Games"
    },
    {
      "Titulo": "Produto #1243",
      "Descricao": "In sunt est aliqua qui dolor reprehenderit reprehenderit ad mollit qui reprehenderit Lorem. Ad consectetur officia ad quis officia velit qui non deserunt ea. Velit ea ea eu laborum nulla ad aliquip ex laboris qui amet. Commodo ullamco voluptate irure consectetur quis eiusmod qui culpa magna proident laboris dolor magna ex. Tempor consequat officia ut non aliqua cillum id culpa proident duis ipsum commodo nulla. Ex anim aute exercitation laboris dolor deserunt veniam elit veniam. Nisi officia amet ad proident eu esse veniam tempor et elit.",
      "ValorPontos": 2969,
      "Categoria": "Eletronico"
    },
    {
      "Titulo": "Produto #1423",
      "Descricao": "Ad id cupidatat duis consectetur est aliqua sit. Dolore reprehenderit veniam consectetur sint est ea dolor ut ut nostrud incididunt nostrud. Aliquip sunt velit laborum ad ea aliquip ex proident amet exercitation laborum. Amet incididunt velit aliqua culpa aliquip incididunt sit officia mollit occaecat pariatur ipsum consequat eu. Sint officia eu incididunt nulla excepteur duis excepteur eu proident.",
      "ValorPontos": 948,
      "Categoria": "Games"
    },
    {
      "Titulo": "Produto #568",
      "Descricao": "Amet esse nulla qui do nisi esse ex excepteur. Tempor dolor tempor aute excepteur velit eiusmod. Esse labore exercitation nostrud ut cupidatat ipsum excepteur ut. Sunt sit occaecat quis laborum ullamco in amet. Magna commodo consectetur anim voluptate nisi esse id do anim nisi in labore ad.",
      "ValorPontos": 2372,
      "Categoria": "CD"
    },
    {
      "Titulo": "Produto #3369",
      "Descricao": "Ex voluptate voluptate aliquip sint adipisicing eu duis amet anim Lorem eu est. Nisi ullamco Lorem sint irure non tempor excepteur. Cupidatat ad non quis esse tempor cupidatat fugiat labore id pariatur nisi quis nostrud. Cillum deserunt do non irure eu Lorem aute enim et elit qui minim do in.",
      "ValorPontos": 2628,
      "Categoria": "CD"
    },
    {
      "Titulo": "Produto #3950",
      "Descricao": "Consequat occaecat sint id laborum qui adipisicing ad reprehenderit labore culpa eu officia adipisicing sunt. Elit laborum ipsum duis voluptate incididunt ea irure pariatur veniam. Cupidatat officia adipisicing deserunt anim ut. Aliqua velit reprehenderit ut consectetur qui amet id irure ad et deserunt culpa aute magna.",
      "ValorPontos": 3642,
      "Categoria": "Jardinagem"
    },
    {
      "Titulo": "Produto #3287",
      "Descricao": "Et sint aliqua sunt nisi cillum aliqua labore aute elit deserunt ullamco. Nostrud ut esse fugiat velit proident ad. Incididunt nisi deserunt culpa velit anim aute enim dolore irure. Aute nisi exercitation aliquip officia ad consectetur nisi do adipisicing exercitation non laborum irure commodo. Exercitation nostrud et laboris mollit nisi elit ullamco amet culpa voluptate aute excepteur voluptate do.",
      "ValorPontos": 1915,
      "Categoria": "Livro"
    },
    {
      "Titulo": "Produto #832",
      "Descricao": "Ex do dolore in occaecat irure aute exercitation sit cupidatat sit non cupidatat laborum. Deserunt magna elit consectetur dolore velit eiusmod eiusmod incididunt excepteur incididunt voluptate sit dolor. Officia ullamco dolor enim fugiat mollit aute do exercitation magna eiusmod ea. Proident consequat occaecat irure Lorem.",
      "ValorPontos": 3148,
      "Categoria": "DVD"
    },
    {
      "Titulo": "Produto #1495",
      "Descricao": "Consequat amet sint cillum et minim. Minim voluptate duis esse laborum dolore non adipisicing in reprehenderit nostrud sit eiusmod officia. Et consequat quis do officia mollit amet eiusmod. Eiusmod eiusmod incididunt aliqua velit incididunt mollit in tempor mollit aute nostrud commodo.",
      "ValorPontos": 1927,
      "Categoria": "CD"
    },
    {
      "Titulo": "Produto #1619",
      "Descricao": "Velit sunt cupidatat sit minim amet incididunt anim reprehenderit cupidatat eiusmod adipisicing occaecat laboris occaecat. Elit nostrud laborum cillum consectetur nisi amet id commodo deserunt nisi magna ullamco. Amet aute ut est officia sint magna nulla culpa reprehenderit voluptate esse. Occaecat minim duis consequat veniam duis incididunt ullamco fugiat. Irure ipsum commodo pariatur eu qui cillum voluptate ipsum nulla. Excepteur minim ad veniam proident fugiat.",
      "ValorPontos": 3981,
      "Categoria": "Livro"
    },
    {
      "Titulo": "Produto #1977",
      "Descricao": "Pariatur nulla nisi amet velit. Voluptate incididunt consectetur pariatur elit voluptate elit. Elit sit veniam quis officia quis sint amet veniam ex excepteur duis.",
      "ValorPontos": 1890,
      "Categoria": "Livro"
    },
    {
      "Titulo": "Produto #1793",
      "Descricao": "Reprehenderit ut fugiat cupidatat ipsum minim. Sit tempor qui anim voluptate dolore consectetur. Adipisicing occaecat quis ullamco est voluptate aute ex occaecat nisi pariatur aliqua quis cillum nisi.",
      "ValorPontos": 2253,
      "Categoria": "DVD"
    },
    {
      "Titulo": "Produto #2153",
      "Descricao": "Laborum officia cupidatat laborum nulla culpa adipisicing. Minim culpa do anim commodo labore et commodo enim mollit nisi ullamco ad consectetur id. Eu occaecat id nostrud qui dolor nostrud deserunt nisi consectetur minim ad. Nisi nostrud amet pariatur nostrud. Ex adipisicing ullamco tempor ea adipisicing pariatur esse amet cupidatat excepteur quis cupidatat. Tempor do excepteur incididunt cupidatat eu elit cillum. Aute eu consectetur cupidatat irure sint deserunt.",
      "ValorPontos": 2665,
      "Categoria": "Eletronico"
    },
    {
      "Titulo": "Produto #1971",
      "Descricao": "Velit excepteur duis labore sit ex voluptate occaecat Lorem consectetur qui cillum aliquip ut culpa. Cillum ipsum esse reprehenderit minim adipisicing mollit. Dolore magna culpa sit id laboris et aute magna consectetur tempor veniam enim minim. Commodo tempor ex nisi Lorem mollit proident sint elit deserunt ipsum exercitation irure consectetur consectetur. Aute esse eu mollit ad id officia magna Lorem cupidatat minim do veniam commodo. In duis anim pariatur veniam elit pariatur sint.",
      "ValorPontos": 2217,
      "Categoria": "Games"
    },
    {
      "Titulo": "Produto #2199",
      "Descricao": "Dolore do Lorem aute ex enim in consectetur incididunt eiusmod eiusmod nostrud do. Tempor labore mollit et cillum ipsum exercitation ullamco duis dolore reprehenderit. Eu anim anim reprehenderit nisi elit ex dolore dolore Lorem dolor ullamco.",
      "ValorPontos": 1921,
      "Categoria": "DVD"
    },
    {
      "Titulo": "Produto #2344",
      "Descricao": "Pariatur et esse pariatur cupidatat deserunt tempor. Excepteur tempor et in enim. Est ut sunt amet dolore eu pariatur elit sunt cupidatat ad commodo. Ullamco reprehenderit enim proident amet nisi do tempor in mollit nostrud adipisicing Lorem minim. Aliqua esse proident sit veniam in exercitation sit. Sint pariatur consequat anim dolor occaecat magna reprehenderit voluptate officia voluptate velit nisi deserunt.",
      "ValorPontos": 2685,
      "Categoria": "CD"
    },
    {
      "Titulo": "Produto #3785",
      "Descricao": "Velit magna cillum commodo consectetur do dolor excepteur ullamco sunt ex ullamco. Nulla nisi nulla quis cillum culpa nostrud ullamco eiusmod anim. Reprehenderit consectetur anim magna elit Lorem aliquip. Cillum id qui id dolore excepteur.",
      "ValorPontos": 2473,
      "Categoria": "Informatica"
    },
    {
      "Titulo": "Produto #3658",
      "Descricao": "Minim id aliqua magna adipisicing nostrud Lorem labore reprehenderit amet do non commodo deserunt. Quis labore et irure excepteur pariatur excepteur quis mollit sint. In proident sint eu ullamco laborum adipisicing irure aliqua eu ex ullamco. Non culpa officia eu laboris culpa aliquip veniam commodo elit ullamco non.",
      "ValorPontos": 3594,
      "Categoria": "Games"
    },
    {
      "Titulo": "Produto #3987",
      "Descricao": "Ullamco dolore sit est veniam velit laborum do aliquip voluptate irure eiusmod labore veniam. Laboris sint esse nisi reprehenderit ullamco velit amet. Quis est minim nisi ea sit sunt culpa dolore nulla consectetur tempor.",
      "ValorPontos": 1380,
      "Categoria": "Games"
    },
    {
      "Titulo": "Produto #3004",
      "Descricao": "Fugiat non eiusmod non adipisicing id culpa reprehenderit ad aute ex fugiat in. Duis aliquip id aliquip elit et minim cillum dolor et nisi eiusmod mollit aliqua. Fugiat culpa incididunt cillum officia aute in minim. Ipsum deserunt cupidatat nisi ex pariatur duis ut aliqua.",
      "ValorPontos": 392,
      "Categoria": "Games"
    }
  ]